line_number,fecha,Morelia
1,2020-03-21,0
2,2020-03-22,7
3,2020-03-23,9
4,2020-03-24,10
5,2020-03-25,10
6,2020-03-26,14
7,2020-03-27,14
8,2020-03-28,14
9,2020-03-29,14
10,2020-03-30,14
11,2020-03-31,15
12,2020-04-01,16
13,2020-04-02,16
14,2020-04-03,18
15,2020-04-04,19
16,2020-04-05,20
17,2020-04-06,21
18,2020-04-07,21
19,2020-04-08,21
20,2020-04-09,21
21,2020-04-10,22
22,2020-04-11,22
23,2020-04-12,22
24,2020-04-13,24
25,2020-04-14,25
26,2020-04-15,25
27,2020-04-16,28
28,2020-04-17,29
29,2020-04-18,29
30,2020-04-19,29
31,2020-04-20,30
32,2020-04-21,30
33,2020-04-22,32
34,2020-04-23,32
35,2020-04-24,36
36,2020-04-25,36
37,2020-04-26,36